{
  "tariffPaymentList": [{
      "label": "寄件人",
      "value": 0
    },
    {
      "label": "收件人",
      "value": 1
    },
    {
      "label": "海速通包邮",
      "value": 2
    }
  ],
  "collectWayList": [
    {
      "label": "网点上门取件",
      "value": 0
    },
    {
      "label": "自送至网点",
      "value": 1
    },
    {
      "label": "物流送至网点",
      "value": 2
    }
  ]
}
